folio= "0154700"
serie= "I"
fecha= "2013-10-08T15:57:29"
formaDePago= "PAGO EN UNA SOLA EXHIBICION"
tipoDeComprobante= "INVOICE"
condicionesDePago= "NET 30"
importeConLetra= " ( Siete Millones Ciento Veinte Mil Setecientos Sesenta y Tres pesos 14/100 M.N.)"
metodoDePago= "NO IDENTIFICADO"
ordenCompra= " "
addenda= "15 "
rfcEmisor= "IME070108-PX7"
nombreEmisor= "IACNA MEXICO,S.DE R.L.DE C.V"
calleEmisor= "CALLE 4 MANZANA 8"
noExtEmisor= "LOTES 10 Y 11 "
coloniaEmisor= "PARQUE INDUSTRIAL TOLUCA2000 "
municipioEmisor= "TOLUCA "
estadoEmisor= "MEX "
paisEmisor= "MEXICO"
cpEmisor= "50010"
rfcReceptor= "NME610911L71"
nombreReceptor= "NISSAN MEXICANA SA DE C.V."
calleReceptor= "RFC#NME-610911-L71"
noExtReceptor= "INSURGENTES SUR No 1958 "
coloniaReceptor= "DELEGACION ALVARO OBREGON "
municipioReceptor= "COL FLORIDA MEXICO "
estadoReceptor= "MEX "
paisReceptor= "MEXICO"
cpReceptor= "01030 "
rfcEnviarA= ""
nombreEnviarA= "NISSAN MEXICANA SA DE"
calleEnviarA= "AGUASCALIENTES ASSY. PLANT "
noExtEnviarA= "CAR LAGOS DE MORENO DK 75 "
coloniaEnviarA= " "
municipioEnviarA= "AGUASCALIENTES, AGS "
estadoEnviarA= "MEX "
paisEnviarA= "MEXICO"
cpEnviarA= "20290"
numProveedor= "003359"
numSucursal= " "
division= "VW"
cantidad[1]= "      986.00"
unidad[1]= "PZA"
sku[1]= " "
noIdentificacion[1]= " 749781HL0A"
descripcion[1]= "SPCR FR FLOOR RR RH"
precioNeto[1]= "      18.8500"
importeNeto[1]= "     18586.10"
precioBruto[1]= "      18.8500"
vendorPack[1]= ""
importeBruto[1]= "     18586.10"
partNum[1]= " 749781HL0A"
partFechaRecibo[1]= "2013-10-08"
ordenCompra[1]= "647698"
Amendment[1]= ""
codigoCargosdet[1]= "VAT"
cantidad[2]= "      986.00"
unidad[2]= "PZA"
sku[2]= " "
noIdentificacion[2]= " 749791HL0A"
descripcion[2]= "SPCR FR FLOOR RR RH"
precioNeto[2]= "      18.8500"
importeNeto[2]= "     18586.10"
precioBruto[2]= "      18.8500"
vendorPack[2]= ""
importeBruto[2]= "     18586.10"
partNum[2]= " 749791HL0A"
partFechaRecibo[2]= "2013-10-08"
ordenCompra[2]= "647699"
Amendment[2]= ""
codigoCargosdet[2]= "VAT"
cantidad[3]= "      986.00"
unidad[3]= "PZA"
sku[3]= " "
noIdentificacion[3]= " 849751HL0A"
descripcion[3]= "BOX-LUG FLOOR"
precioNeto[3]= "      54.1900"
importeNeto[3]= "     53431.34"
precioBruto[3]= "      54.1900"
vendorPack[3]= ""
importeBruto[3]= "     53431.34"
partNum[3]= " 849751HL0A"
partFechaRecibo[3]= "2013-10-08"
ordenCompra[3]= "651282"
Amendment[3]= ""
codigoCargosdet[3]= "VAT"
cantidad[4]= "      986.00"
unidad[4]= "PZA"
sku[4]= " "
noIdentificacion[4]= " 749761HL0A"
descripcion[4]= "SPCR-FR FLOOR FR RH"
precioNeto[4]= "      72.8700"
importeNeto[4]= "     71849.82"
precioBruto[4]= "      72.8700"
vendorPack[4]= ""
importeBruto[4]= "     71849.82"
partNum[4]= " 749761HL0A"
partFechaRecibo[4]= "2013-10-08"
ordenCompra[4]= "651289"
Amendment[4]= ""
codigoCargosdet[4]= "VAT"
cantidad[5]= "      852.00"
unidad[5]= "PZA"
sku[5]= " "
noIdentificacion[5]= " 749763AN0A"
descripcion[5]= "SPCR-FR FLOOR FR,RH"
precioNeto[5]= "      93.1700"
importeNeto[5]= "     79380.84"
precioBruto[5]= "      93.1700"
vendorPack[5]= ""
importeBruto[5]= "     79380.84"
partNum[5]= " 749763AN0A"
partFechaRecibo[5]= "2013-10-08"
ordenCompra[5]= "651290"
Amendment[5]= ""
codigoCargosdet[5]= "VAT"
cantidad[6]= "       41.00"
unidad[6]= "PZA"
sku[6]= " "
noIdentificacion[6]= " 749763BA4A"
descripcion[6]= "SPCR-FR FLOOR FR,RH"
precioNeto[6]= "      99.6600"
importeNeto[6]= "      4086.06"
precioBruto[6]= "      99.6600"
vendorPack[6]= ""
importeBruto[6]= "      4086.06"
partNum[6]= " 749763BA4A"
partFechaRecibo[6]= "2013-10-08"
ordenCompra[6]= "651291"
Amendment[6]= ""
codigoCargosdet[6]= "VAT"
cantidad[7]= "      986.00"
unidad[7]= "PZA"
sku[7]= " "
noIdentificacion[7]= " 749771HL0A"
descripcion[7]= "SPCR-FR FLOOR FR LH"
precioNeto[7]= "      69.8600"
importeNeto[7]= "     68881.96"
precioBruto[7]= "      69.8600"
vendorPack[7]= ""
importeBruto[7]= "     68881.96"
partNum[7]= " 749771HL0A"
partFechaRecibo[7]= "2013-10-08"
ordenCompra[7]= "651292"
Amendment[7]= ""
codigoCargosdet[7]= "VAT"
cantidad[8]= "      412.00"
unidad[8]= "PZA"
sku[8]= " "
noIdentificacion[8]= " 749773AN0A"
descripcion[8]= "SPCR-FR FLOOR FR,LH"
precioNeto[8]= "      90.3200"
importeNeto[8]= "     37211.84"
precioBruto[8]= "      90.3200"
vendorPack[8]= ""
importeBruto[8]= "     37211.84"
partNum[8]= " 749773AN0A"
partFechaRecibo[8]= "2013-10-08"
ordenCompra[8]= "651293"
Amendment[8]= ""
codigoCargosdet[8]= "VAT"
cantidad[9]= "      440.00"
unidad[9]= "PZA"
sku[9]= " "
noIdentificacion[9]= " 749773AN6A"
descripcion[9]= "SPCR-FR FLOOR FR,LH"
precioNeto[9]= "      91.7000"
importeNeto[9]= "     40348.00"
precioBruto[9]= "      91.7000"
vendorPack[9]= ""
importeBruto[9]= "     40348.00"
partNum[9]= " 749773AN6A"
partFechaRecibo[9]= "2013-10-08"
ordenCompra[9]= "651294"
Amendment[9]= ""
codigoCargosdet[9]= "VAT"
cantidad[10]= "       41.00"
unidad[10]= "PZA"
sku[10]= " "
noIdentificacion[10]= " 749773BA4A"
descripcion[10]= "SPCR-FR FLOOR FR,LH"
precioNeto[10]= "      96.8200"
importeNeto[10]= "      3969.62"
precioBruto[10]= "      96.8200"
vendorPack[10]= ""
importeBruto[10]= "      3969.62"
partNum[10]= " 749773BA4A"
partFechaRecibo[10]= "2013-10-08"
ordenCompra[10]= "651296"
Amendment[10]= ""
codigoCargosdet[10]= "VAT"
cantidad[11]= "      893.00"
unidad[11]= "PZA"
sku[11]= " "
noIdentificacion[11]= " 749783BA0A"
descripcion[11]= "SPCR-FR FLOOR RR,RH"
precioNeto[11]= "      28.9800"
importeNeto[11]= "     25879.14"
precioBruto[11]= "      28.9800"
vendorPack[11]= ""
importeBruto[11]= "     25879.14"
partNum[11]= " 749783BA0A"
partFechaRecibo[11]= "2013-10-08"
ordenCompra[11]= "651298"
Amendment[11]= ""
codigoCargosdet[11]= "VAT"
cantidad[12]= "      893.00"
unidad[12]= "PZA"
sku[12]= " "
noIdentificacion[12]= " 749793BA0A"
descripcion[12]= "SPCR-FR FLOOR RR,LH"
precioNeto[12]= "      28.9800"
importeNeto[12]= "     25879.14"
precioBruto[12]= "      28.9800"
vendorPack[12]= ""
importeBruto[12]= "     25879.14"
partNum[12]= " 749793BA0A"
partFechaRecibo[12]= "2013-10-08"
ordenCompra[12]= "651299"
Amendment[12]= ""
codigoCargosdet[12]= "VAT"
cantidad[13]= "     2554.00"
unidad[13]= "PZA"
sku[13]= " "
noIdentificacion[13]= " 264103AN0A"
descripcion[13]= "LAMP ASSY ROOM NISSA"
precioNeto[13]= "      41.1500"
importeNeto[13]= "    105097.10"
precioBruto[13]= "      41.1500"
vendorPack[13]= ""
importeBruto[13]= "    105097.10"
partNum[13]= " 264103AN0A"
partFechaRecibo[13]= "2013-10-08"
ordenCompra[13]= "651649"
Amendment[13]= ""
codigoCargosdet[13]= "VAT"
cantidad[14]= "     1422.00"
unidad[14]= "PZA"
sku[14]= " "
noIdentificacion[14]= " 749763WC0A"
descripcion[14]= "SPACER-FR FLOOR FR,R"
precioNeto[14]= "      65.8900"
importeNeto[14]= "     93695.58"
precioBruto[14]= "      65.8900"
vendorPack[14]= ""
importeBruto[14]= "     93695.58"
partNum[14]= " 749763WC0A"
partFechaRecibo[14]= "2013-10-08"
ordenCompra[14]= "660133"
Amendment[14]= ""
codigoCargosdet[14]= "VAT"
cantidad[15]= "      239.00"
unidad[15]= "PZA"
sku[15]= " "
noIdentificacion[15]= " 749763WC4A"
descripcion[15]= "SPACER-FR FLOOR FR,R"
precioNeto[15]= "      65.2400"
importeNeto[15]= "     15592.36"
precioBruto[15]= "      65.2400"
vendorPack[15]= ""
importeBruto[15]= "     15592.36"
partNum[15]= " 749763WC4A"
partFechaRecibo[15]= "2013-10-08"
ordenCompra[15]= "660134"
Amendment[15]= ""
codigoCargosdet[15]= "VAT"
cantidad[16]= "     1422.00"
unidad[16]= "PZA"
sku[16]= " "
noIdentificacion[16]= " 749773WC0A"
descripcion[16]= "SPACER-FR FLOOR FR,L"
precioNeto[16]= "      57.9000"
importeNeto[16]= "     82333.80"
precioBruto[16]= "      57.9000"
vendorPack[16]= ""
importeBruto[16]= "     82333.80"
partNum[16]= " 749773WC0A"
partFechaRecibo[16]= "2013-10-08"
ordenCompra[16]= "660135"
Amendment[16]= ""
codigoCargosdet[16]= "VAT"
cantidad[17]= "      239.00"
unidad[17]= "PZA"
sku[17]= " "
noIdentificacion[17]= " 749773WC4A"
descripcion[17]= "SPACER-FR FLOOR FR,L"
precioNeto[17]= "      57.9000"
importeNeto[17]= "     13838.10"
precioBruto[17]= "      57.9000"
vendorPack[17]= ""
importeBruto[17]= "     13838.10"
partNum[17]= " 749773WC4A"
partFechaRecibo[17]= "2013-10-08"
ordenCompra[17]= "660136"
Amendment[17]= ""
codigoCargosdet[17]= "VAT"
cantidad[18]= "     1661.00"
unidad[18]= "PZA"
sku[18]= " "
noIdentificacion[18]= " 749783WC0A"
descripcion[18]= "SPACER-FR FLOOR RR R"
precioNeto[18]= "      28.0300"
importeNeto[18]= "     46557.83"
precioBruto[18]= "      28.0300"
vendorPack[18]= ""
importeBruto[18]= "     46557.83"
partNum[18]= " 749783WC0A"
partFechaRecibo[18]= "2013-10-08"
ordenCompra[18]= "660137"
Amendment[18]= ""
codigoCargosdet[18]= "VAT"
cantidad[19]= "     1661.00"
unidad[19]= "PZA"
sku[19]= " "
noIdentificacion[19]= " 749793WC0A"
descripcion[19]= "SPACER-FR FLOOR RR L"
precioNeto[19]= "      28.0300"
importeNeto[19]= "     46557.83"
precioBruto[19]= "      28.0300"
vendorPack[19]= ""
importeBruto[19]= "     46557.83"
partNum[19]= " 749793WC0A"
partFechaRecibo[19]= "2013-10-08"
ordenCompra[19]= "660138"
Amendment[19]= ""
codigoCargosdet[19]= "VAT"
cantidad[20]= "     1661.00"
unidad[20]= "PZA"
sku[20]= " "
noIdentificacion[20]= " 849033VY0A"
descripcion[20]= "CARPET LUG FLOOR  J0"
precioNeto[20]= "     265.1400"
importeNeto[20]= "    440397.54"
precioBruto[20]= "     265.1400"
vendorPack[20]= ""
importeBruto[20]= "    440397.54"
partNum[20]= " 849033VY0A"
partFechaRecibo[20]= "2013-10-08"
ordenCompra[20]= "660296"
Amendment[20]= ""
codigoCargosdet[20]= "VAT"
cantidad[21]= "     1661.00"
unidad[21]= "PZA"
sku[21]= " "
noIdentificacion[21]= " 849753WC0A"
descripcion[21]= "BOX-LUG FLOOR, EPP"
precioNeto[21]= "      93.2700"
importeNeto[21]= "    154921.47"
precioBruto[21]= "      93.2700"
vendorPack[21]= ""
importeBruto[21]= "    154921.47"
partNum[21]= " 849753WC0A"
partFechaRecibo[21]= "2013-10-08"
ordenCompra[21]= "660297"
Amendment[21]= ""
codigoCargosdet[21]= "VAT"
cantidad[22]= "      708.00"
unidad[22]= "PZA"
sku[22]= " "
noIdentificacion[22]= " 739409KF0A"
descripcion[22]= "GRIP-ASST L02B PK81"
precioNeto[22]= "      38.7800"
importeNeto[22]= "     27456.24"
precioBruto[22]= "      38.7800"
vendorPack[22]= ""
importeBruto[22]= "     27456.24"
partNum[22]= " 739409KF0A"
partFechaRecibo[22]= "2013-10-08"
ordenCompra[22]= "661263"
Amendment[22]= ""
codigoCargosdet[22]= "VAT"
cantidad[23]= "      713.00"
unidad[23]= "PZA"
sku[23]= " "
noIdentificacion[23]= " 739B03SG2B"
descripcion[23]= "HEADLINER ASSY-ROOF"
precioNeto[23]= "     912.7800"
importeNeto[23]= "    650812.14"
precioBruto[23]= "     912.7800"
vendorPack[23]= ""
importeBruto[23]= "    650812.14"
partNum[23]= " 739B03SG2B"
partFechaRecibo[23]= "2013-10-08"
ordenCompra[23]= "666168"
Amendment[23]= ""
codigoCargosdet[23]= "VAT"
cantidad[24]= "     2091.00"
unidad[24]= "PZA"
sku[24]= " "
noIdentificacion[24]= " 739B03SG3B"
descripcion[24]= "HEADLINER ASSY-ROOF"
precioNeto[24]= "     946.9500"
importeNeto[24]= "   1980072.45"
precioBruto[24]= "     946.9500"
vendorPack[24]= ""
importeBruto[24]= "   1980072.45"
partNum[24]= " 739B03SG3B"
partFechaRecibo[24]= "2013-10-08"
ordenCompra[24]= "666169"
Amendment[24]= ""
codigoCargosdet[24]= "VAT"
cantidad[25]= "      100.00"
unidad[25]= "PZA"
sku[25]= " "
noIdentificacion[25]= " 739B03SG7B"
descripcion[25]= "HEADLINER ASSY-ROOF"
precioNeto[25]= "     902.5900"
importeNeto[25]= "     90259.00"
precioBruto[25]= "     902.5900"
vendorPack[25]= ""
importeBruto[25]= "     90259.00"
partNum[25]= " 739B03SG7B"
partFechaRecibo[25]= "2013-10-08"
ordenCompra[25]= "666170"
Amendment[25]= ""
codigoCargosdet[25]= "VAT"
cantidad[26]= "      358.00"
unidad[26]= "PZA"
sku[26]= " "
noIdentificacion[26]= " 739B03SG8B"
descripcion[26]= "HEADLINER ASSY-ROOF"
precioNeto[26]= "     921.2600"
importeNeto[26]= "    329811.08"
precioBruto[26]= "     921.2600"
vendorPack[26]= ""
importeBruto[26]= "    329811.08"
partNum[26]= " 739B03SG8B"
partFechaRecibo[26]= "2013-10-08"
ordenCompra[26]= "666171"
Amendment[26]= ""
codigoCargosdet[26]= "VAT"
cantidad[27]= "      422.00"
unidad[27]= "PZA"
sku[27]= " "
noIdentificacion[27]= " 799103SG5C"
descripcion[27]= "PSHELF X12F BEIGE SI"
precioNeto[27]= "     236.6200"
importeNeto[27]= "     99853.64"
precioBruto[27]= "     236.6200"
vendorPack[27]= ""
importeBruto[27]= "     99853.64"
partNum[27]= " 799103SG5C"
partFechaRecibo[27]= "2013-10-08"
ordenCompra[27]= "666172"
Amendment[27]= ""
codigoCargosdet[27]= "VAT"
cantidad[28]= "     1859.00"
unidad[28]= "PZA"
sku[28]= " "
noIdentificacion[28]= " 799103SG5D"
descripcion[28]= "PSHELF X12F BEIGE SI"
precioNeto[28]= "     243.3700"
importeNeto[28]= "    452424.83"
precioBruto[28]= "     243.3700"
vendorPack[28]= ""
importeBruto[28]= "    452424.83"
partNum[28]= " 799103SG5D"
partFechaRecibo[28]= "2013-10-08"
ordenCompra[28]= "666173"
Amendment[28]= ""
codigoCargosdet[28]= "VAT"
cantidad[29]= "      623.00"
unidad[29]= "PZA"
sku[29]= " "
noIdentificacion[29]= " 799103SG6D"
descripcion[29]= "PSHELF X12F NEGRO SI"
precioNeto[29]= "     236.5800"
importeNeto[29]= "    147389.34"
precioBruto[29]= "     236.5800"
vendorPack[29]= ""
importeBruto[29]= "    147389.34"
partNum[29]= " 799103SG6D"
partFechaRecibo[29]= "2013-10-08"
ordenCompra[29]= "666174"
Amendment[29]= ""
codigoCargosdet[29]= "VAT"
cantidad[30]= "       30.00"
unidad[30]= "PZA"
sku[30]= " "
noIdentificacion[30]= " 799103SG7C"
descripcion[30]= "PSHELF X12F BEIGE CO"
precioNeto[30]= "     300.9700"
importeNeto[30]= "      9029.10"
precioBruto[30]= "     300.9700"
vendorPack[30]= ""
importeBruto[30]= "      9029.10"
partNum[30]= " 799103SG7C"
partFechaRecibo[30]= "2013-10-08"
ordenCompra[30]= "666175"
Amendment[30]= ""
codigoCargosdet[30]= "VAT"
cantidad[31]= "      108.00"
unidad[31]= "PZA"
sku[31]= " "
noIdentificacion[31]= " 799103SG7D"
descripcion[31]= "PSHELF X12F NEGRO CO"
precioNeto[31]= "     300.9700"
importeNeto[31]= "     32504.76"
precioBruto[31]= "     300.9700"
vendorPack[31]= ""
importeBruto[31]= "     32504.76"
partNum[31]= " 799103SG7D"
partFechaRecibo[31]= "2013-10-08"
ordenCompra[31]= "666176"
Amendment[31]= ""
codigoCargosdet[31]= "VAT"
cantidad[32]= "      220.00"
unidad[32]= "PZA"
sku[32]= " "
noIdentificacion[32]= " 799103SG8D"
descripcion[32]= "PSHELF X12F NEGRO CO"
precioNeto[32]= "     300.9700"
importeNeto[32]= "     66213.40"
precioBruto[32]= "     300.9700"
vendorPack[32]= ""
importeBruto[32]= "     66213.40"
partNum[32]= " 799103SG8D"
partFechaRecibo[32]= "2013-10-08"
ordenCompra[32]= "666177"
Amendment[32]= ""
codigoCargosdet[32]= "VAT"
cantidad[33]= "     3262.00"
unidad[33]= "PZA"
sku[33]= " "
noIdentificacion[33]= " 849023SG0B"
descripcion[33]= "CARPET ASSY-TRUNK FL"
precioNeto[33]= "     246.9900"
importeNeto[33]= "    805681.38"
precioBruto[33]= "     246.9900"
vendorPack[33]= ""
importeBruto[33]= "    805681.38"
partNum[33]= " 849023SG0B"
partFechaRecibo[33]= "2013-10-08"
ordenCompra[33]= "666178"
Amendment[33]= ""
codigoCargosdet[33]= "VAT"
billOfLading="I0154700"
packingList="I0154700"
subTotalAD="    6138588.93"
subTotalDD="    7120763.14"
Total= "    7120763.14"
porcentajeImpuesto="16"
importeImpuesto= "     982174.21 "
observaciones=" "
CadOriginal=" "
Sello=" "
NoAprob=" "
AnioAprob=" "
NoCert=" "
PrinterName="AS_FACTURA "
tipoAddenda="PPR"
tipoDoc="FA"
version="1.0"
referenciaProveedor="01002156"
cancelNum=" "
strTipoCambio="1"
proveedorCodigo="003359"
proveedorNombre="IACNA MEXICO,S.DE R.L.DE C.V"
proveedorSufijo=" "
origenCodigo="003359"
origenNombre="TOLUCA"
origenSufijo=" "
destinoCodigo="6030"
destinoNombre="NMX. Aguascalientes"
destinoSufijo=" "
receivingCodigo=" "
receivingNombre=" "
receivingSufijo=" "
deptNum=" "
cuentaNum=" "
nota="Periodo prefactura  20131006  Proveedor  03359 "
refChrysler=" "
consecutivo=" "
montoLinea=" "
factura=" "
codigoCargos="VAT"
montoCargo="     982174.21"
transporte=" | | "
divisa="MXN"
tipoDeCambio="  1.0000"
ImpuestoRet="          0.00"
nombreExpedidoEn="IACNA MEXICO,S.DE R.L.DE C.V"
calleExpedidoEn="CALLE 4 MANZANA 8"
noExtExpedidoEn="LOTES 10 Y 11 "
coloniaExpedidoEn="PARQUE INDUSTRIAL TOLUCA2000 "
municipioExpedidoEn="TOLUCA "
estadoExpedidoEn="MEX "
paisExpedidoEn="MEXICO"
cpExpedidoEn="50010"
shipper="I0154700"
Path_File=""
plantaEmisor="TOL"
totalPesos="    7120763.14"
impuestoPesos="     982174.21"
numeroCliente="01002156"
documentStatus="ORIGINAL"
alternatePartyIdentification="SELLER_ASSIGNED_IDENTIFIER_FOR_A_PARTY"
referenceIdentification="ON"
referenceIdentificationtype="999"
AdditionalInformation="ACE"
AdditionalInformationType="I0154700"
correoContacto="DMendoza@iacgroup.com"
nombreSolicitante=""
correoSolicitante=""
NumCtaPago="NO IDENTIFICADO"
RegimenFiscal="Regimen de Consolidacion"
LugarExpedicion="TOLUCA,MEX,MX,50010"
